Suite/Test/Step Name,Browser,Description,Start time,End time,Duration,Status
FirstTest,Chrome 71.0.3578.98,,2019-01-15 19:29:00,2019-01-15 19:29:43,42.785s,FAILED
,,,,,,
Test Cases/ExecuteAutomationTC,Chrome 71.0.3578.98,,2019-01-15 19:29:01,2019-01-15 19:29:43,42.242s,FAILED
"openBrowser("""")",Chrome 71.0.3578.98,,2019-01-15 19:29:01,2019-01-15 19:29:06,4.718s,PASSED
"openBrowser("""")",Chrome 71.0.3578.98,,2019-01-15 19:29:06,2019-01-15 19:29:08,1.746s,PASSED
"navigateToUrl(""http://executeautomation.com/demosite/Login.html"")",Chrome 71.0.3578.98,,2019-01-15 19:29:08,2019-01-15 19:29:09,1.249s,PASSED
"setText(findTestObject(""EAOR/Page_Execute Automation/input_UserName""), ""admin"")",Chrome 71.0.3578.98,,2019-01-15 19:29:09,2019-01-15 19:29:10,0.387s,PASSED
"setText(findTestObject(""EAOR/Page_Execute Automation/input_Password""), ""admin"")",Chrome 71.0.3578.98,,2019-01-15 19:29:10,2019-01-15 19:29:10,0.182s,PASSED
"click(findTestObject(""EAOR/Page_Execute Automation/input_Login""))",Chrome 71.0.3578.98,,2019-01-15 19:29:10,2019-01-15 19:29:11,1.026s,PASSED
"selectOptionByValue(findTestObject(""EAOR/Page_Execute Automation/select_SelectMr.Ms.""), ""1"", true)",Chrome 71.0.3578.98,,2019-01-15 19:29:11,2019-01-15 19:29:11,0.246s,PASSED
"setText(findTestObject(""EAOR/Page_Execute Automation/input_Initial""), ""KK"")",Chrome 71.0.3578.98,,2019-01-15 19:29:11,2019-01-15 19:29:11,0.196s,PASSED
"setText(findTestObject(""EAOR/Page_Execute Automation/input_FirstName""), ""Karthik"")",Chrome 71.0.3578.98,,2019-01-15 19:29:11,2019-01-15 19:29:11,0.166s,PASSED
"click(findTestObject(""EAOR/Page_Execute Automation/input_Hindi""))",Chrome 71.0.3578.98,,2019-01-15 19:29:11,2019-01-15 19:29:11,0.073s,PASSED
"doubleClick(findTestObject(""EAOR/Page_Execute Automation/input_Save""))",Chrome 71.0.3578.98,,2019-01-15 19:29:11,2019-01-15 19:29:43,31.601s,FAILED
