Suite/Test/Step Name,Browser,Description,Start time,End time,Duration,Status
FirstTest,Chrome 71.0.3578.98,,2019-01-15 19:47:41,2019-01-15 19:47:51,10.533s,PASSED
,,,,,,
Test Cases/ExecuteAutomationTC,Chrome 71.0.3578.98,,2019-01-15 19:47:41,2019-01-15 19:47:51,9.967s,PASSED
"openBrowser("""")",Chrome 71.0.3578.98,,2019-01-15 19:47:42,2019-01-15 19:47:46,4.021s,PASSED
"openBrowser("""")",Chrome 71.0.3578.98,,2019-01-15 19:47:46,2019-01-15 19:47:48,1.971s,PASSED
"navigateToUrl(""http://executeautomation.com/demosite/Login.html"")",Chrome 71.0.3578.98,,2019-01-15 19:47:48,2019-01-15 19:47:49,1.185s,PASSED
"setText(findTestObject(""EAOR/Page_Execute Automation/input_UserName""), ""admin"")",Chrome 71.0.3578.98,,2019-01-15 19:47:49,2019-01-15 19:47:50,0.315s,PASSED
"setText(findTestObject(""EAOR/Page_Execute Automation/input_Password""), ""admin"")",Chrome 71.0.3578.98,,2019-01-15 19:47:50,2019-01-15 19:47:50,0.158s,PASSED
"click(findTestObject(""EAOR/Page_Execute Automation/input_Login""))",Chrome 71.0.3578.98,,2019-01-15 19:47:50,2019-01-15 19:47:50,0.788s,PASSED
"selectOptionByValue(findTestObject(""EAOR/Page_Execute Automation/select_SelectMr.Ms.""), ""1"", true)",Chrome 71.0.3578.98,,2019-01-15 19:47:50,2019-01-15 19:47:51,0.247s,PASSED
"setText(findTestObject(""EAOR/Page_Execute Automation/input_Initial""), ""KK"")",Chrome 71.0.3578.98,,2019-01-15 19:47:51,2019-01-15 19:47:51,0.201s,PASSED
"setText(findTestObject(""EAOR/Page_Execute Automation/input_FirstName""), ""Karthik"")",Chrome 71.0.3578.98,,2019-01-15 19:47:51,2019-01-15 19:47:51,0.166s,PASSED
"click(findTestObject(""EAOR/Page_Execute Automation/input_Hindi""))",Chrome 71.0.3578.98,,2019-01-15 19:47:51,2019-01-15 19:47:51,0.082s,PASSED
closeBrowser(),Chrome 71.0.3578.98,,2019-01-15 19:47:51,2019-01-15 19:47:51,0.175s,PASSED
closeBrowser(),Chrome 71.0.3578.98,,2019-01-15 19:47:51,2019-01-15 19:47:51,0.002s,PASSED
