Suite/Test/Step Name,Browser,Description,Start time,End time,Duration,Status
FirstTest,Chrome 71.0.3578.98,,2019-01-15 19:30:45,2019-01-15 19:31:27,42.302s,FAILED
,,,,,,
Test Cases/ExecuteAutomationTC,Chrome 71.0.3578.98,,2019-01-15 19:30:45,2019-01-15 19:31:27,41.503s,FAILED
"openBrowser("""")",Chrome 71.0.3578.98,,2019-01-15 19:30:46,2019-01-15 19:30:50,4.240s,PASSED
"openBrowser("""")",Chrome 71.0.3578.98,,2019-01-15 19:30:50,2019-01-15 19:30:52,1.847s,PASSED
"navigateToUrl(""http://executeautomation.com/demosite/Login.html"")",Chrome 71.0.3578.98,,2019-01-15 19:30:52,2019-01-15 19:30:53,0.918s,PASSED
"setText(findTestObject(""EAOR/Page_Execute Automation/input_UserName""), ""admin"")",Chrome 71.0.3578.98,,2019-01-15 19:30:53,2019-01-15 19:30:53,0.421s,PASSED
"setText(findTestObject(""EAOR/Page_Execute Automation/input_Password""), ""admin"")",Chrome 71.0.3578.98,,2019-01-15 19:30:53,2019-01-15 19:30:53,0.186s,PASSED
"click(findTestObject(""EAOR/Page_Execute Automation/input_Login""))",Chrome 71.0.3578.98,,2019-01-15 19:30:53,2019-01-15 19:30:54,0.912s,PASSED
"selectOptionByValue(findTestObject(""EAOR/Page_Execute Automation/select_SelectMr.Ms.""), ""1"", true)",Chrome 71.0.3578.98,,2019-01-15 19:30:54,2019-01-15 19:30:55,0.296s,PASSED
"setText(findTestObject(""EAOR/Page_Execute Automation/input_Initial""), ""KK"")",Chrome 71.0.3578.98,,2019-01-15 19:30:55,2019-01-15 19:30:55,0.219s,PASSED
"setText(findTestObject(""EAOR/Page_Execute Automation/input_FirstName""), ""Karthik"")",Chrome 71.0.3578.98,,2019-01-15 19:30:55,2019-01-15 19:30:55,0.205s,PASSED
"click(findTestObject(""EAOR/Page_Execute Automation/input_Hindi""))",Chrome 71.0.3578.98,,2019-01-15 19:30:55,2019-01-15 19:30:55,0.088s,PASSED
"doubleClick(findTestObject(""EAOR/Page_Execute Automation/input_Save""))",Chrome 71.0.3578.98,,2019-01-15 19:30:55,2019-01-15 19:31:27,31.544s,FAILED
